{
  "title": {
    "en": "Mental health information",
    "zh-tw": "心理健康資訊"
  },
  "chapters": [
    "education-chapter1",
    "education-chapter2",
    "education-chapter3",
    "education-chapter4",
    "education-chapter5"
  ],
    "image":""
}
